Workshop Introduction to R
…
print(df) # Inhalt ausgeben

## # A tibble: 124 x 9
##    code  Geschlecht SprunggelenkM1 SprunggelenkM2 Huefte.INNEN.Fl
##    <chr> <fct>               <dbl>          <dbl>            <dbl>
##  1 code m                      15             10               30
##  2 code m                      24             20               44
##  3 code m                      26             20               40
##  4 code m                       8             12               28
##  5 code m                      51             50               15
##  6 code m                      10             15               20
##  7 code m                      80             75               35
##  8 code m                      12             10               20
##  9 code m                      50             50               20
## 10 code m                      52             50               38
## #  with 114 more rows, and 4 more variables: Huefte.AUSSEN.Flexion <dbl>,
## #   Huefte.INNEN.Extension <dbl>, Huefte.AUSSEN.Extension <dbl>,
## #   Studienjahrgang <fct>
…
In einem ersten Schritt bentigen wir die summarise() Funktion um nach Subgruppen Summary Statistiken zu berechnen. Wir wollen beispielsweise wissen wie Mittelwert, Median, Standardabweichung, Interquartilsrange, Minimum und Maximum fr die verschiedenen Variablen getrennt nach Geschlecht sind.

Mit Auflistung der Variablen

Wir knnen die Variablen, fr die wir Summary Statistiken berechnen wollen, explizit vorgeben. Hier mal fr Huefte_INNEN_Extension und Huefte_AUSSEN_Flexion.

df %>%
  drop_na(Geschlecht) %>% # Zeilen mit nicht bekanntem Geschlecht entfernen
  group_by(Geschlecht) %>% # Gruppieren nach Geschlecht
  summarise_at(vars(Huefte.INNEN.Extension,Huefte.AUSSEN.Flexion),tibble::lst(mean,sd,median,min,max,IQR), na.rm=T) %>%
  gather(key="key",value="value",-Geschlecht) %>% # Make things tidy
  separate(key, into=c("measurement","statistic"),sep="_") # Separate columns

## # A tibble: 24 x 4
##    Geschlecht measurement            statistic value
##    <fct>      <chr>                  <chr>     <dbl>
##  1 m          Huefte.INNEN.Extension mean      35.3 
##  2 f          Huefte.INNEN.Extension mean      46.9 
##  3 m          Huefte.AUSSEN.Flexion  mean      42.0 
##  4 f          Huefte.AUSSEN.Flexion  mean      42.2 
##  5 m          Huefte.INNEN.Extension sd        10.6 
##  6 f          Huefte.INNEN.Extension sd        11.4 
##  7 m          Huefte.AUSSEN.Flexion  sd        13.3 
##  8 f          Huefte.AUSSEN.Flexion  sd         9.86
##  9 m          Huefte.INNEN.Extension median    35   
## 10 f          Huefte.INNEN.Extension median    49   
## #  with 14 more rows
…
print(statdf)

## # A tibble: 72 x 4
##    Geschlecht measurement            statistic value
##    <fct>      <chr>                  <chr>     <dbl>
##  1 m          SprunggelenkM1         mean       44.3
##  2 f          SprunggelenkM1         mean       51.8
##  3 m          SprunggelenkM2         mean       43.5
##  4 f          SprunggelenkM2         mean       51.5
##  5 m          Huefte.INNEN.Flexion   mean       27.6
##  6 f          Huefte.INNEN.Flexion   mean       37.4
##  7 m          Huefte.AUSSEN.Flexion  mean       42.0
##  8 f          Huefte.AUSSEN.Flexion  mean       42.2
##  9 m          Huefte.INNEN.Extension mean       35.3
## 10 f          Huefte.INNEN.Extension mean       46.9
## #  with 62 more rows
…
Wir mchten nun also zum Bespiel fr alle Variablen, wiederum getrennt nach Geschlecht, Boxplots zeichnen. Damit das in der Art und Weise von ggplot geht brauchen wir den Datensatz nun konsequent im tidy Format. Wir haben vorhin gesehen, dass wir den Datensatz nach den Hft- und Sprunggelenkmessungen trennen mssen damit dies geht und zudem die Attribute Hfte, INNEN/AUSSEN und Flexion/Extension in den Variablennamen als Gruppierungsvariablen behandelt werden mssen.

Wir splitten den Datensatz zuerst auf in hipdf fr die Hfte und ankledf fr die Sprunggelenkmessungen:

hipdf = df %>% select(-c("SprunggelenkM1","SprunggelenkM2"))
ankledf = df %>% select(-c("Huefte.INNEN.Extension","Huefte.INNEN.Flexion","Huefte.AUSSEN.Extension","Huefte.AUSSEN.Flexion"))

Nun bringen wir die Hftmessungen noch konsequent ins tidy Format:

thipdf = hipdf %>%
  pivot_longer(cols=starts_with("Huefte"),names_to = "Condition", values_to = "Winkel") %>%
  separate(Condition,into = c("Gelenk","Richtung","Stellung"),sep = "[.]")
print(thipdf)

## # A tibble: 496 x 7
##    code      Geschlecht Studienjahrgang Gelenk Richtung Stellung  Winkel
##    <chr>     <fct>      <fct>           <chr>  <chr>    <chr>      <dbl>
##  1 code01.01 m          PT05            Huefte INNEN    Flexion       30
##  2 code01.01 m          PT05            Huefte AUSSEN   Flexion       50
##  3 code01.01 m          PT05            Huefte INNEN    Extension     25
##  4 code01.01 m          PT05            Huefte AUSSEN   Extension     40
##  5 code01.02 m          PT05            Huefte INNEN    Flexion       44
##  6 code01.02 m          PT05            Huefte AUSSEN   Flexion       32
##  7 code01.02 m          PT05            Huefte INNEN    Extension     42
##  8 code01.02 m          PT05            Huefte AUSSEN   Extension     36
##  9 code01.03 m          PT05            Huefte INNEN    Flexion       40
## 10 code01.03 m          PT05            Huefte AUSSEN   Flexion       50
## #  with 486 more rows
…
Schliessende Statistik

Paired samples: Vergleich Innenrotation Flexion vs.Extension

Um zu entscheiden welcher statistische angewendet werden darf mssen wir nochmals einen Blick auf die Stichprobengrssen werfen. Zuerst whlen wir und die Daten aus unserem Datensatz aus fr die wir uns jetzt interessieren:

analysisdf = thipdf %>%
  filter(Richtung=="INNEN" & Stellung=="Flexion" | Richtung=="INNEN" & Stellung=="Extension")
print(analysisdf)

## # A tibble: 248 x 7
##    code      Geschlecht Studienjahrgang Gelenk Richtung Stellung  Winkel
##    <chr>     <fct>      <fct>           <chr>  <chr>    <chr>      <dbl>
##  1 code01.01 m          PT05            Huefte INNEN    Flexion       30
##  2 code01.01 m          PT05            Huefte INNEN    Extension     25
##  3 code01.02 m          PT05            Huefte INNEN    Flexion       44
##  4 code01.02 m          PT05            Huefte INNEN    Extension     42
##  5 code01.03 m          PT05            Huefte INNEN    Flexion       40
##  6 code01.03 m          PT05            Huefte INNEN    Extension     38
##  7 code01.04 m          PT05            Huefte INNEN    Flexion       28
##  8 code01.04 m          PT05            Huefte INNEN    Extension     32
##  9 code01.05 m          PT05            Huefte INNEN    Flexion       15
## 10 code01.05 m          PT05            Huefte INNEN    Extension     15
## #  with 238 more rows
…
Wie wir sehen gibt es noch 30 Zeilen ohne definiertes Geschlecht. Diese lschen wir also noch raus:

analysisdf = analysisdf %>%
  drop_na(Geschlecht)
print(analysisdf)

## # A tibble: 188 x 7
##    code      Geschlecht Studienjahrgang Gelenk Richtung Stellung  Winkel
##    <chr>     <fct>      <fct>           <chr>  <chr>    <chr>      <dbl>
##  1 code01.01 m          PT05            Huefte INNEN    Flexion       30
##  2 code01.01 m          PT05            Huefte INNEN    Extension     25
##  3 code01.02 m          PT05            Huefte INNEN    Flexion       44
##  4 code01.02 m          PT05            Huefte INNEN    Extension     42
##  5 code01.03 m          PT05            Huefte INNEN    Flexion       40
##  6 code01.03 m          PT05            Huefte INNEN    Extension     38
##  7 code01.04 m          PT05            Huefte INNEN    Flexion       28
##  8 code01.04 m          PT05            Huefte INNEN    Extension     32
##  9 code01.05 m          PT05            Huefte INNEN    Flexion       15
## 10 code01.05 m          PT05            Huefte INNEN    Extension     15
## #  with 178 more rows
…
Shapiro Wilk Test

Wir demonstrieren zuerst den konservativen Weg:

tmpdf = filter(analysisdf,Geschlecht=="m" & Stellung=="Flexion") # Subset extrahieren
print(tmpdf)

## # A tibble: 23 x 7
##    code      Geschlecht Studienjahrgang Gelenk Richtung Stellung Winkel
##    <chr>     <fct>      <fct>           <chr>  <chr>    <chr>     <dbl>
##  1 code01.01 m          PT05            Huefte INNEN    Flexion      30
##  2 code01.02 m          PT05            Huefte INNEN    Flexion      44
##  3 code01.03 m          PT05            Huefte INNEN    Flexion      40
##  4 code01.04 m          PT05            Huefte INNEN    Flexion      28
##  5 code01.05 m          PT05            Huefte INNEN    Flexion      15
##  6 code01.06 m          PT05            Huefte INNEN    Flexion      20
##  7 code01.07 m          PT05            Huefte INNEN    Flexion      35
##  8 code01.08 m          PT05            Huefte INNEN    Flexion      20
##  9 code01.09 m          PT05            Huefte INNEN    Flexion      20
## 10 code01.10 m          PT05            Huefte INNEN    Flexion      38
## #  with 13 more rows
…
Wir stellen fr keine der Subgruppen signifikante Abweichung von der Normalverteilung ist. Wir mssen natrlich im Kopf behalten, dass die Aussage fr die Mnner zweifelhaft ist, weil wir nur eine Stichprobengrsse von 23 haben. Sicherheitshalber sollten wir in diesem Fall nicht-parametrisch testen. Zu Demonstrationszwecken testen wir nun parametrisch und nicht-parametrisch.

Wir knnen es wiederum auf den konservativen Weg tun:

adf = filter(analysisdf,Geschlecht=="m" & Stellung=="Flexion") # Subset A extrahieren
bdf = filter(analysisdf,Geschlecht=="m" & Stellung=="Extension") # Subset B extrahieren
print(tmpdf)

## # A tibble: 23 x 7
##    code      Geschlecht Studienjahrgang Gelenk Richtung Stellung Winkel
##    <chr>     <fct>      <fct>           <chr>  <chr>    <chr>     <dbl>
##  1 code01.01 m          PT05            Huefte INNEN    Flexion      30
##  2 code01.02 m          PT05            Huefte INNEN    Flexion      44
##  3 code01.03 m          PT05            Huefte INNEN    Flexion      40
##  4 code01.04 m          PT05            Huefte INNEN    Flexion      28
##  5 code01.05 m          PT05            Huefte INNEN    Flexion      15
##  6 code01.06 m          PT05            Huefte INNEN    Flexion      20
##  7 code01.07 m          PT05            Huefte INNEN    Flexion      35
##  8 code01.08 m          PT05            Huefte INNEN    Flexion      20
##  9 code01.09 m          PT05            Huefte INNEN    Flexion      20
## 10 code01.10 m          PT05            Huefte INNEN    Flexion      38
## #  with 13 more rows
…
